[
  {"name": "这是文章列表中的第1篇文章","date":"2016-12-16","image":"../imgs/item_1.png"},
  {"name": "这是文章列表中的第2篇文章","date":"2016-12-16","image":"../imgs/item_2.png"},
  {"name": "这是文章列表中的第3篇文章","date":"2016-12-16","image":"../imgs/item_3.png"},
  {"name": "这是文章列表中的第4篇文章","date":"2016-12-16","image":"../imgs/item_4.png"},
  {"name": "这是文章列表中的第5篇文章","date":"2016-12-16","image":"../imgs/item_5.png"},
  {"name": "这是文章列表中的第6篇文章","date":"2016-12-16","image":"../imgs/item_6.png"},
  {"name": "这是文章列表中的第7篇文章","date":"2016-12-16","image":"../imgs/item_7.png"},
  {"name": "这是文章列表中的第8篇文章","date":"2016-12-16","image":"../imgs/item_8.png"},
  {"name": "这是文章列表中的第9篇文章","date":"2016-12-16","image":"../imgs/item_9.png"},

  {"name": "这是文章列表中的第10篇文章","date":"2016-12-16","image":"../imgs/item_10.png"},
  {"name": "这是文章列表中的第11篇文章","date":"2016-12-16","image":"../imgs/item_11.png"},
  {"name": "这是文章列表中的第12篇文章","date":"2016-12-16","image":"../imgs/item_12.png"},
  {"name": "这是文章列表中的第13篇文章","date":"2016-12-16","image":"../imgs/item_13.png"},
  {"name": "这是文章列表中的第14篇文章","date":"2016-12-16","image":"../imgs/item_14.png"},
  {"name": "这是文章列表中的第15篇文章","date":"2016-12-16","image":"../imgs/item_15.png"},
  {"name": "这是文章列表中的第16篇文章","date":"2016-12-16","image":"../imgs/item_16.png"},
  {"name": "这是文章列表中的第17篇文章","date":"2016-12-16","image":"../imgs/item_17.png"},
  {"name": "这是文章列表中的第18篇文章","date":"2016-12-16","image":"../imgs/item_18.png"},
  {"name": "这是文章列表中的第19篇文章","date":"2016-12-16","image":"../imgs/item_19.png"},

  {"name": "这是文章列表中的第20篇文章","date":"2016-12-16","image":"../imgs/item_20.png"},
  {"name": "这是文章列表中的第21篇文章","date":"2016-12-16","image":"../imgs/item_21.png"},
  {"name": "这是文章列表中的第22篇文章","date":"2016-12-16","image":"../imgs/item_22.png"},
  {"name": "这是文章列表中的第23篇文章","date":"2016-12-16","image":"../imgs/item_23.png"},
  {"name": "这是文章列表中的第24篇文章","date":"2016-12-16","image":"../imgs/item_24.png"},
  {"name": "这是文章列表中的第25篇文章","date":"2016-12-16","image":"../imgs/item_25.png"},
  {"name": "这是文章列表中的第26篇文章","date":"2016-12-16","image":"../imgs/item_26.png"},
  {"name": "这是文章列表中的第27篇文章","date":"2016-12-16","image":"../imgs/item_27.png"},
  {"name": "这是文章列表中的第28篇文章","date":"2016-12-16","image":"../imgs/item_28.png"},
  {"name": "这是文章列表中的第29篇文章","date":"2016-12-16","image":"../imgs/item_29.png"},

  {"name": "这是文章列表中的第30篇文章","date":"2016-12-16","image":"../imgs/item_30.png"},
  {"name": "这是文章列表中的第31篇文章","date":"2016-12-16","image":"../imgs/item_31.png"},
  {"name": "这是文章列表中的第32篇文章","date":"2016-12-16","image":"../imgs/item_32.png"},
  {"name": "这是文章列表中的第33篇文章","date":"2016-12-16","image":"../imgs/item_33.png"},
  {"name": "这是文章列表中的第34篇文章","date":"2016-12-16","image":"../imgs/item_34.png"},
  {"name": "这是文章列表中的第35篇文章","date":"2016-12-16","image":"../imgs/item_35.png"},
  {"name": "这是文章列表中的第36篇文章","date":"2016-12-16","image":"../imgs/item_36.png"},
  {"name": "这是文章列表中的第37篇文章","date":"2016-12-16","image":"../imgs/item_37.png"},
  {"name": "这是文章列表中的第38篇文章","date":"2016-12-16","image":"../imgs/item_38.png"},
  {"name": "这是文章列表中的第39篇文章","date":"2016-12-16","image":"../imgs/item_39.png"},

  {"name": "这是文章列表中的第40篇文章","date":"2016-12-16","image":"../imgs/item_40.png"},
  {"name": "这是文章列表中的第41篇文章","date":"2016-12-16","image":"../imgs/item_41.png"},
  {"name": "这是文章列表中的第42篇文章","date":"2016-12-16","image":"../imgs/item_42.png"},
  {"name": "这是文章列表中的第43篇文章","date":"2016-12-16","image":"../imgs/item_43.png"},
  {"name": "这是文章列表中的第44篇文章","date":"2016-12-16","image":"../imgs/item_44.png"},
  {"name": "这是文章列表中的第45篇文章","date":"2016-12-16","image":"../imgs/item_45.png"},
  {"name": "这是文章列表中的第46篇文章","date":"2016-12-16","image":"../imgs/item_46.png"},
  {"name": "这是文章列表中的第47篇文章","date":"2016-12-16","image":"../imgs/item_47.png"},
  {"name": "这是文章列表中的第48篇文章","date":"2016-12-16","image":"../imgs/item_48.png"},
  {"name": "这是文章列表中的第49篇文章","date":"2016-12-16","image":"../imgs/item_49.png"},

  {"name": "这是文章列表中的第50篇文章","date":"2016-12-16","image":"../imgs/item_50.png"},
  {"name": "这是文章列表中的第51篇文章","date":"2016-12-16","image":"../imgs/item_51.png"},
  {"name": "这是文章列表中的第52篇文章","date":"2016-12-16","image":"../imgs/item_52.png"},
  {"name": "这是文章列表中的第53篇文章","date":"2016-12-16","image":"../imgs/item_53.png"},
  {"name": "这是文章列表中的第54篇文章","date":"2016-12-16","image":"../imgs/item_54.png"},
  {"name": "这是文章列表中的第55篇文章","date":"2016-12-16","image":"../imgs/item_55.png"},
  {"name": "这是文章列表中的第56篇文章","date":"2016-12-16","image":"../imgs/item_56.png"},
  {"name": "这是文章列表中的第57篇文章","date":"2016-12-16","image":"../imgs/item_57.png"},
  {"name": "这是文章列表中的第58篇文章","date":"2016-12-16","image":"../imgs/item_58.png"},
  {"name": "这是文章列表中的第59篇文章","date":"2016-12-16","image":"../imgs/item_59.png"},

  {"name": "这是文章列表中的第60篇文章","date":"2016-12-16","image":"../imgs/item_60.png"},
  {"name": "这是文章列表中的第61篇文章","date":"2016-12-16","image":"../imgs/item_61.png"},
  {"name": "这是文章列表中的第62篇文章","date":"2016-12-16","image":"../imgs/item_62.png"},
  {"name": "这是文章列表中的第63篇文章","date":"2016-12-16","image":"../imgs/item_63.png"},
  {"name": "这是文章列表中的第64篇文章","date":"2016-12-16","image":"../imgs/item_64.png"},
  {"name": "这是文章列表中的第65篇文章","date":"2016-12-16","image":"../imgs/item_65.png"},
  {"name": "这是文章列表中的第66篇文章","date":"2016-12-16","image":"../imgs/item_66.png"},
  {"name": "这是文章列表中的第67篇文章","date":"2016-12-16","image":"../imgs/item_67.png"},
  {"name": "这是文章列表中的第68篇文章","date":"2016-12-16","image":"../imgs/item_68.png"},
  {"name": "这是文章列表中的第69篇文章","date":"2016-12-16","image":"../imgs/item_69.png"},

  {"name": "这是文章列表中的第70篇文章","date":"2016-12-16","image":"../imgs/item_70.png"},
  {"name": "这是文章列表中的第71篇文章","date":"2016-12-16","image":"../imgs/item_71.png"},
  {"name": "这是文章列表中的第72篇文章","date":"2016-12-16","image":"../imgs/item_72.png"},
  {"name": "这是文章列表中的第73篇文章","date":"2016-12-16","image":"../imgs/item_73.png"},
  {"name": "这是文章列表中的第74篇文章","date":"2016-12-16","image":"../imgs/item_74.png"},
  {"name": "这是文章列表中的第75篇文章","date":"2016-12-16","image":"../imgs/item_75.png"},
  {"name": "这是文章列表中的第76篇文章","date":"2016-12-16","image":"../imgs/item_76.png"},
  {"name": "这是文章列表中的第77篇文章","date":"2016-12-16","image":"../imgs/item_77.png"},
  {"name": "这是文章列表中的第78篇文章","date":"2016-12-16","image":"../imgs/item_78.png"},
  {"name": "这是文章列表中的第79篇文章","date":"2016-12-16","image":"../imgs/item_79.png"},

  {"name": "这是文章列表中的第80篇文章","date":"2016-12-16","image":"../imgs/item_80.png"},
  {"name": "这是文章列表中的第81篇文章","date":"2016-12-16","image":"../imgs/item_81.png"},
  {"name": "这是文章列表中的第82篇文章","date":"2016-12-16","image":"../imgs/item_82.png"},
  {"name": "这是文章列表中的第83篇文章","date":"2016-12-16","image":"../imgs/item_83.png"},
  {"name": "这是文章列表中的第84篇文章","date":"2016-12-16","image":"../imgs/item_84.png"},
  {"name": "这是文章列表中的第85篇文章","date":"2016-12-16","image":"../imgs/item_85.png"},
  {"name": "这是文章列表中的第86篇文章","date":"2016-12-16","image":"../imgs/item_86.png"},
  {"name": "这是文章列表中的第87篇文章","date":"2016-12-16","image":"../imgs/item_87.png"},
  {"name": "这是文章列表中的第88篇文章","date":"2016-12-16","image":"../imgs/item_88.png"},
  {"name": "这是文章列表中的第89篇文章","date":"2016-12-16","image":"../imgs/item_89.png"},

  {"name": "这是文章列表中的第90篇文章","date":"2016-12-16","image":"../imgs/item_90.png"},
  {"name": "这是文章列表中的第91篇文章","date":"2016-12-16","image":"../imgs/item_91.png"},
  {"name": "这是文章列表中的第92篇文章","date":"2016-12-16","image":"../imgs/item_92.png"},
  {"name": "这是文章列表中的第93篇文章","date":"2016-12-16","image":"../imgs/item_93.png"},
  {"name": "这是文章列表中的第94篇文章","date":"2016-12-16","image":"../imgs/item_94.png"},
  {"name": "这是文章列表中的第95篇文章","date":"2016-12-16","image":"../imgs/item_95.png"},
  {"name": "这是文章列表中的第96篇文章","date":"2016-12-16","image":"../imgs/item_96.png"},
  {"name": "这是文章列表中的第97篇文章","date":"2016-12-16","image":"../imgs/item_97.png"},
  {"name": "这是文章列表中的第98篇文章","date":"2016-12-16","image":"../imgs/item_98.png"},
  {"name": "这是文章列表中的第99篇文章","date":"2016-12-16","image":"../imgs/item_99.png"}

]
