{
  "home": {
    "view": "#view_main",
    "name": "home",
    "title": "首页",
    "url": "views/home.html"
  },
  "start": {
    "view": "#view_main",
    "name": "start",
    "title": "开始",
    "url": "views/start.html"
  },
  "standards": {
    "view": "#view_main",
    "name": "standards",
    "title": "规范",
    "url": "views/standards.html"
  },
  "components": {
    "view": "#view_main",
    "name": "components",
    "title": "组件",
    "url": "views/components.html"
  },
  "template": {
    "view": "#view_main",
    "name": "template",
    "title": "模版",
    "url": "views/template.html"
  },
  "contributor": {
    "view": "#view_main",
    "name": "contributor",
    "title": "贡献",
    "url": "views/contributor.html"
  },
  "questions": {
    "view": "#view_main",
    "name": "questions",
    "title": "问答",
    "url": "views/questions.html"
  }
}