[
  {"name": "Junbo","age":"18","email":"xiaojunbo@126.com"},
  {"name": "Aaaaa","age":"19","email":"aaaa@126.com"},
  {"name": "Bbbbb","age":"20","email":"bbbb@126.com"},
  {"name": "Ccccc","age":"21","email":"cccc@126.com"},
  {"name": "Ddddd","age":"22","email":"dddd@126.com"},
  {"name": "Eeeee","age":"23","email":"eeee@126.com"},
  {"name": "Fffff","age":"24","email":"ffff@126.com"},
  {"name": "ooo","age":"25","email":"hhhh@126.com"}
]
